<svg width="17" height="17" viewBox="0 0 17 17" fill="none" xmlns="http://www.w3.org/2000/svg">
<path d="M5.09941 5.33899C6.01016 4.60928 7.14282 4.2125 8.30985 4.21437C9.52419 4.21437 10.6402 4.63496 11.5203 5.33899L12.3506 4.50866L13.1586 5.3167L12.3283 6.14703C12.9327 6.90372 13.3112 7.81569 13.4203 8.778C13.5293 9.74031 13.3644 10.7138 12.9445 11.5866C12.5247 12.4593 11.8669 13.1957 11.047 13.7111C10.2271 14.2266 9.27831 14.5 8.30985 14.5C7.34138 14.5 6.3926 14.2266 5.57269 13.7111C4.75277 13.1957 4.09504 12.4593 3.67519 11.5866C3.25534 10.7138 3.09043 9.74031 3.19944 8.778C3.30845 7.81569 3.68694 6.90372 4.29137 6.14703L3.46105 5.31727L4.26909 4.50924L5.09941 5.33956V5.33899ZM8.30985 13.3576C8.83516 13.3576 9.35533 13.2542 9.84065 13.0532C10.326 12.8521 10.767 12.5575 11.1384 12.186C11.5099 11.8146 11.8045 11.3736 12.0055 10.8883C12.2066 10.4029 12.31 9.88277 12.31 9.35746C12.31 8.83215 12.2066 8.31198 12.0055 7.82666C11.8045 7.34133 11.5099 6.90035 11.1384 6.5289C10.767 6.15745 10.326 5.8628 9.84065 5.66177C9.35533 5.46074 8.83516 5.35728 8.30985 5.35728C7.24893 5.35728 6.23147 5.77872 5.48129 6.5289C4.73111 7.27908 4.30966 8.29655 4.30966 9.35746C4.30966 10.4184 4.73111 11.4358 5.48129 12.186C6.23147 12.9362 7.24893 13.3576 8.30985 13.3576ZM8.8813 8.78601H10.5957L7.73839 12.5005V9.92892H6.02403L8.8813 6.2116V8.78601ZM6.02403 2.5H10.5957V3.64291H6.02403V2.5Z" fill="white"/>
</svg>
